…
Question: does the expression profile of this gene differ between
groups?

You could start with a pairwise comparison (every group is compared to
every other group) but this can get difficult to interpret since there
are so many groups.

``` r
myeloma <- read.delim("https://raw.githubusercontent.com/kassambara/data/master/myeloma.txt")

compare_means(DEPDC1 ~ molecular_group, data = myeloma,
              method = "t.test")
```

    ## # A tibble: 21 × 8
    ##    .y.    group1     group2                   p   p.adj p.format p.signif method
    ##    <chr>  <chr>      <chr>                <dbl>   <dbl> <chr>    <chr>    <chr> 
    ##  1 DEPDC1 Cyclin D-1 Cyclin D-2       0.178     1       0.17845  ns       T-test
    ##  2 DEPDC1 Cyclin D-1 MMSET            0.483     1       0.48343  ns       T-test
    ##  3 DEPDC1 Cyclin D-1 MAF              0.873     1       0.87321  ns       T-test
    ##  4 DEPDC1 Cyclin D-1 Hyperdiploid     0.00979   0.12    0.00979  **       T-test
    ##  5 DEPDC1 Cyclin D-1 Proliferation    0.0209    0.19    0.02087  *        T-test
    ##  6 DEPDC1 Cyclin D-1 Low bone disease 0.00856   0.11    0.00856  **       T-test
    ##  7 DEPDC1 Cyclin D-2 MMSET            0.297     1       0.29664  ns       T-test
    ##  8 DEPDC1 Cyclin D-2 MAF              0.164     1       0.16357  ns       T-test
    ##  9 DEPDC1 Cyclin D-2 Hyperdiploid     0.00246   0.037   0.00246  **       T-test
    ## 10 DEPDC1 Cyclin D-2 Proliferation    0.0000108 0.00021 1.1e-05  ****     T-test
    ## # ℹ 11 more rows
…
